{
  "project_info": {
    "project_number": "797905649873",
    "project_id": "smartplayer2-17bbf",
    "storage_bucket": "smartplayer2-17bbf.appspot.com"
  },
  "client": [
    {
      "client_info": {
        "mobilesdk_app_id": "1:797905649873:android:01760bb457bf56529dc5f0",
        "android_client_info": {
          "package_name": "com.asr.smartaplayer"
        }
      },
      "oauth_client": [],
      "api_key": [
        {
          "current_key": "AIzaSyDDpZqI6c2qH90g5rU8ger5g9mgfctEs2A"
        }
      ],
      "services": {
        "appinvite_service": {
          "other_platform_oauth_client": []
        }
      }
    },
    {
      "client_info": {
        "mobilesdk_app_id": "1:797905649873:android:640b565406d0a2629dc5f0",
        "android_client_info": {
          "package_name": "com.asr.smartplayer"
        }
      },
      "oauth_client": [],
      "api_key": [
        {
          "current_key": "AIzaSyDDpZqI6c2qH90g5rU8ger5g9mgfctEs2A"
        }
      ],
      "services": {
        "appinvite_service": {
          "other_platform_oauth_client": []
        }
      }
    }
  ],
  "configuration_version": "1"
}